…
imdb_recipe %>%
  prep() %>% 
  bake(new_data = imdb_train) 
```

    ## # A tibble: 579 × 19
    ##    released_year runtime imdb_rating no_of_votes  gross certificate_U
    ##            <dbl>   <dbl>       <dbl>       <dbl>  <dbl>         <dbl>
    ##  1        -1.92   2.97          2.32    -0.00742 0.269          1.57 
    ##  2        -3.01  -1.35          1.97    -0.430   0.0192         1.57 
    ##  3         1.14   0.0514        1.61    -0.731   1.66          -0.636
    ##  4         0.613  1.46          1.61    -0.427   1.22           1.57 
    ##  5         0.422 -0.850         1.61     0.564   0.707         -0.636
    ##  6         0.136  0.340         1.61     0.0710  2.38           1.57 
    ##  7        -1.44  -1.07          1.61     0.378   0.276         -0.636
    ##  8         0.136 -1.28          1.25    -0.723   0.934          1.57 
    ##  9        -0.103 -0.922         1.25     1.72    2.83          -0.636
    ## 10        -2.01   0.664         1.25    -0.714   0.0552        -0.636
    ## # ℹ 569 more rows
    ## # ℹ 13 more variables: certificate_UA <dbl>, primary_genre_Adventure <dbl>,
    ## #   primary_genre_Animation <dbl>, primary_genre_Biography <dbl>,
    ## #   primary_genre_Comedy <dbl>, primary_genre_Crime <dbl>,
    ## #   primary_genre_Drama <dbl>, primary_genre_Film.Noir <dbl>,
    ## #   primary_genre_Horror <dbl>, primary_genre_Mystery <dbl>,
    ## #   primary_genre_Thriller <dbl>, primary_genre_Western <dbl>, …
…
